4.3 readr::read_delim() | Daten Analyse mit RStudio - Dokumentation
…
4.3 readr::read_delim()

Nun wollen wir lernen, einen großen Datensatz einzulesen. Dazu verwenden wir die Daten aus dem Speicherkoog. Es handelt sich um eine .csv Datei, die entweder mit der Funktion

read_csv() (liest CSV-Dateien, die ein Komma , als Spalten- und einen Punkt . als Dezimaltrennzeichen verwenden)

read_csv2() (liest CSV-Dateien, die ein Semikolon ; als Spalten- und das Komma , als Dezimaltrennzeichen verwenden)

eingelesen werden können. Dazu geben wir den Dateipfad relativ zu unserem Arbeitsverzeichnis an. Ich habe bspw. meine Daten zum einlesen in einem Unterordner data. Von der Datei selber wird der Pfad durch / getrennt angegeben.

# Laden der Daten mit der Funktion read_csv
koog_raw <- readr::read_csv("data/data.csv")
koog_raw
## # A tibble: 94,537 x 1
##    `time;date;ST10;MP10;ST20;MP20;ST30;MP30;ST60;MP60;ST100;MP100;ST150;MP150;E~
##    <chr>                                                                        
##  1 1;01.04.2010 00:00;7.42;0;7.28;0;6.98;0;6.13;0;5.55;0;5.44;0;449.27;439.59;4~
##  2 2;01.04.2010 01:00;7.21;0;7.24;0;6.99;0;6.12;0;5.6;0;5.42;0;450.75;439.89;43~
##  3 3;01.04.2010 02:00;7.01;0;7.14;0;6.94;0;6.13;0;5.59;0;5.41;0;452.22;440.21;4~
##  4 4;01.04.2010 03:00;6.91;0;7.12;0;6.88;0;6.17;0;5.63;0;5.44;0;452.95;440.31;4~
##  5 5;01.04.2010 04:00;6.81;0;7.12;0;6.9;0;6.17;0;5.58;0;5.47;0;453.46;440.66;43~
##  6 6;01.04.2010 05:00;6.73;0;6.96;0;6.89;0;6.15;0;5.6;0;5.45;0;453.62;440.9;436~
##  7 7;01.04.2010 06:00;6.66;0;6.96;0;6.91;0;6.16;0;5.64;0;5.43;0;453.62;441.04;4~
##  8 8;01.04.2010 07:00;6.59;0;6.9;0;6.85;0;6.19;0;5.65;0;5.44;0;453.64;441.16;43~
##  9 9;01.04.2010 08:00;6.51;0;6.92;0;6.85;0;6.17;0;5.61;0;5.45;0;453.46;441.12;4~
## 10 10;01.04.2010 09:00;6.54;0;6.82;0;6.81;0;6.2;0;5.65;0;5.45;0;453.54;441.33;4~
## # ... with 94,527 more rows
…
